^C:\USERS\НИКИТА\SOURCE\REPOS\PRAKTICHESKAYARABOTA15.4\X64\DEBUG\MAIN.OBJ
C:\USERS\Никита\SOURCE\REPOS\PRAKTICHESKAYARABOTA15.4\X64\DEBUG\PRAKTICHESKAYARABOTA15.4.EXE
C:\USERS\Никита\SOURCE\REPOS\PRAKTICHESKAYARABOTA15.4\X64\DEBUG\PRAKTICHESKAYARABOTA15.4.ILK
C:\USERS\Никита\SOURCE\REPOS\PRAKTICHESKAYARABOTA15.4\X64\DEBUG\PRAKTICHESKAYARABOTA15.4.PDB
